<?xml version="1.0" encoding="UTF-8" standalone="no"?>
<!-- Created using Karbon, part of Calligra: http://www.calligra.org/karbon -->

<svg
   xmlns:dc="http://purl.org/dc/elements/1.1/"
   xmlns:cc="http://creativecommons.org/ns#"
   xmlns:rdf="http://www.w3.org/1999/02/22-rdf-syntax-ns#"
   xmlns:svg="http://www.w3.org/2000/svg"
   xmlns="http://www.w3.org/2000/svg"
   xmlns:sodipodi="http://sodipodi.sourceforge.net/DTD/sodipodi-0.dtd"
   xmlns:inkscape="http://www.inkscape.org/namespaces/inkscape"
   width="48"
   height="48"
   id="svg2"
   version="1.1"
   inkscape:version="0.91 r"
   sodipodi:docname="font.svg">
  <metadata
     id="metadata14">
    <rdf:RDF>
      <cc:Work
         rdf:about="">
        <dc:format>image/svg+xml</dc:format>
        <dc:type
           rdf:resource="http://purl.org/dc/dcmitype/StillImage" />
        <dc:title></dc:title>
      </cc:Work>
    </rdf:RDF>
  </metadata>
  <sodipodi:namedview
     pagecolor="#ffffff"
     bordercolor="#666666"
     borderopacity="1"
     objecttolerance="10"
     gridtolerance="10"
     guidetolerance="10"
     inkscape:pageopacity="0"
     inkscape:pageshadow="2"
     inkscape:window-width="1549"
     inkscape:window-height="876"
     id="namedview12"
     showgrid="true"
     inkscape:showpageshadow="false"
     borderlayer="true"
     units="px"
     showguides="true"
     inkscape:zoom="6.9532165"
     inkscape:cx="24.045956"
     inkscape:cy="11.408967"
     inkscape:window-x="51"
     inkscape:window-y="24"
     inkscape:window-maximized="1"
     inkscape:current-layer="svg2">
    <inkscape:grid
       type="xygrid"
       id="grid4143" />
    <sodipodi:guide
       position="6.9999962,43.999931"
       orientation="40,0"
       id="guide4188" />
    <sodipodi:guide
       position="6.9999962,3.999931"
       orientation="0,34"
       id="guide4190" />
    <sodipodi:guide
       position="40.999996,3.999931"
       orientation="-29,0"
       id="guide4192" />
    <sodipodi:guide
       position="40.999996,32.999931"
       orientation="-11,-11"
       id="guide4194" />
    <sodipodi:guide
       position="29.999996,43.999931"
       orientation="0,-23"
       id="guide4196" />
    <sodipodi:guide
       position="0,47.999988"
       orientation="48.000007,0"
       id="guide4200" />
    <sodipodi:guide
       position="0,-1.9073486e-05"
       orientation="0,48.000008"
       id="guide4202" />
    <sodipodi:guide
       position="48.000008,-1.9073486e-05"
       orientation="-48.000007,0"
       id="guide4204" />
    <sodipodi:guide
       position="48.000008,47.999988"
       orientation="0,-48.000008"
       id="guide4206" />
    <sodipodi:guide
       position="14.999998,33.000002"
       orientation="18.000002,0"
       id="guide4210" />
    <sodipodi:guide
       position="14.999998,15"
       orientation="0,18.000002"
       id="guide4212" />
    <sodipodi:guide
       position="33,15"
       orientation="-18.000002,0"
       id="guide4214" />
    <sodipodi:guide
       position="33,33.000002"
       orientation="0,-18.000002"
       id="guide4216" />
  </sodipodi:namedview>
  <defs
     id="defs4" />
  <path
     inkscape:connector-curvature="0"
     style="fill:#cbd6d8;fill-opacity:1;stroke:none"
     d="m 6.9999962,4.0000694 0,39.9999996 33.9999998,0 0,-29 -11,-10.9999996 z"
     id="rect4090-2"
     sodipodi:nodetypes="cccccc" />
  <path
     style="fill:#6c7a89;fill-opacity:1;stroke:none;stroke-width:0.28222224px;stroke-linecap:butt;stroke-linejoin:miter;stroke-opacity:1"
     d="m 29.999934,3.9999311 0,11.0001599 11.000061,0 z"
     id="path4151-1"
     inkscape:connector-curvature="0" />
  <path
     inkscape:connector-curvature="0"
     id="path4252-9"
     d="m 40.999995,26.000252 0,-11.000161 -11.000061,0 z"
     style="fill:#000000;fill-opacity:0.11764706;stroke:none" />
  <rect
     style="color:#000000;text-decoration:none;text-decoration-line:none;text-decoration-style:solid;text-decoration-color:#000000;clip-rule:nonzero;display:inline;overflow:visible;visibility:visible;opacity:1;isolation:auto;mix-blend-mode:normal;color-interpolation:sRGB;color-interpolation-filters:linearRGB;solid-color:#000000;solid-opacity:1;fill:#ecf0f1;fill-opacity:1;fill-rule:nonzero;stroke:none;stroke-width:1;stroke-linecap:butt;stroke-linejoin:miter;stroke-miterlimit:4;stroke-dasharray:none;stroke-dashoffset:0;stroke-opacity:1;color-rendering:auto;image-rendering:auto;shape-rendering:auto;text-rendering:auto;enable-background:accumulate"
     id="rect4263"
     width="1"
     height="1"
     x="-7"
     y="19.000029"
     ry="2.35182e-07" />
  <rect
     style="color:#000000;text-decoration:none;text-decoration-line:none;text-decoration-style:solid;text-decoration-color:#000000;clip-rule:nonzero;display:inline;overflow:visible;visibility:visible;opacity:1;isolation:auto;mix-blend-mode:normal;color-interpolation:sRGB;color-interpolation-filters:linearRGB;solid-color:#000000;solid-opacity:1;fill:#6c7a89;fill-opacity:1;fill-rule:nonzero;stroke:none;stroke-width:1;stroke-linecap:butt;stroke-linejoin:miter;stroke-miterlimit:4;stroke-dasharray:none;stroke-dashoffset:0;stroke-opacity:1;color-rendering:auto;image-rendering:auto;shape-rendering:auto;text-rendering:auto;enable-background:accumulate"
     id="rect4263-9"
     width="1"
     height="1"
     x="-7"
     y="21.000029"
     ry="2.35182e-07" />
  <rect
     style="color:#000000;text-decoration:none;text-decoration-line:none;text-decoration-style:solid;text-decoration-color:#000000;clip-rule:nonzero;display:inline;overflow:visible;visibility:visible;opacity:1;isolation:auto;mix-blend-mode:normal;color-interpolation:sRGB;color-interpolation-filters:linearRGB;solid-color:#000000;solid-opacity:1;fill:#bdc3c7;fill-opacity:1;fill-rule:nonzero;stroke:none;stroke-width:1;stroke-linecap:butt;stroke-linejoin:miter;stroke-miterlimit:4;stroke-dasharray:none;stroke-dashoffset:0;stroke-opacity:1;color-rendering:auto;image-rendering:auto;shape-rendering:auto;text-rendering:auto;enable-background:accumulate"
     id="rect4263-2"
     width="1"
     height="1"
     x="-7"
     y="23.000029"
     ry="2.35182e-07" />
  <g
     style="font-style:normal;font-variant:normal;font-weight:normal;font-stretch:normal;font-size:24.42192841px;line-height:125%;font-family:serif;-inkscape-font-specification:serif;letter-spacing:0px;word-spacing:0px;fill:#333333;fill-opacity:1;stroke:none;stroke-width:1px;stroke-linecap:butt;stroke-linejoin:miter;stroke-opacity:1"
     id="text4225">
    <path
       d="m 16.199835,26.35238 6.534774,0 -3.267387,-8.466587 -3.267387,8.466587 z m -5.032253,6.4513 0,-1.264025 1.562145,0 6.343978,-16.539656 2.003361,0 6.355902,16.539656 1.752941,0 0,1.264025 -6.47515,0 0,-1.264025 1.979512,0 -1.490596,-3.911325 -7.488756,0 -1.490596,3.911325 1.955662,0 0,1.264025 -5.008403,0 z"
       style="fill:#333333;fill-opacity:1"
       id="path4236" />
    <path
       d="m 34.476586,30.542624 0,-1.523166 -1.604402,0 q -0.927439,0 -1.381004,0.399408 -0.453566,0.399408 -0.453566,1.225303 0,0.751429 0.460335,1.191454 0.460335,0.440026 1.245612,0.440026 0.778507,0 1.252381,-0.480643 0.480644,-0.480644 0.480644,-1.252382 z m 1.245612,-2.233977 0,3.777453 1.110219,0 0,0.71758 -2.355831,0 0,-0.778507 q -0.412947,0.500953 -0.954518,0.73789 Q 32.980498,33 32.256148,33 31.057923,33 30.353882,32.363655 29.64984,31.727309 29.64984,30.644169 q 0,-1.116989 0.805586,-1.733025 0.805586,-0.616037 2.274596,-0.616037 l 1.746564,0 0,-0.494183 q 0,-0.819125 -0.500953,-1.26592 -0.494183,-0.453565 -1.394543,-0.453565 -0.744659,0 -1.184685,0.338481 -0.440026,0.338482 -0.54834,1.001905 l -0.643115,0 0,-1.45547 q 0.649884,-0.277555 1.259151,-0.412947 0.616036,-0.142163 1.198224,-0.142163 1.496088,0 2.274596,0.74466 0.785277,0.737889 0.785277,2.152742 z"
       style="font-size:13.86420059px;fill:#333333;fill-opacity:1"
       id="path4238" />
  </g>
</svg>
