<?xml version="1.0" encoding="UTF-8" standalone="no"?>
<svg
   xmlns:dc="http://purl.org/dc/elements/1.1/"
   xmlns:cc="http://creativecommons.org/ns#"
   xmlns:rdf="http://www.w3.org/1999/02/22-rdf-syntax-ns#"
   xmlns:svg="http://www.w3.org/2000/svg"
   xmlns="http://www.w3.org/2000/svg"
   xml:space="preserve"
   enable-background="new 0 0 990.234 269.946"
   viewBox="0 0 252 119.99999"
   height="120"
   width="252"
   y="0px"
   x="0px"
   id="Fleshed"
   version="1.1"><metadata
     id="metadata4327"><rdf:RDF><cc:Work
         rdf:about=""><dc:format>image/svg+xml</dc:format><dc:type
           rdf:resource="http://purl.org/dc/dcmitype/StillImage" /><dc:title></dc:title></cc:Work></rdf:RDF></metadata><defs
     id="defs4325" /><g
     transform="translate(0,-2)"
     id="layer2" /><g
     transform="translate(0,-2)"
     style="display:inline"
     id="layer1"><path
       style="fill:#ffffff"
       d="m 86.387058,66.323511 c 0,11.863908 -9.240459,20.591874 -21.960568,20.591874 -12.717746,0 -21.958205,-8.671233 -21.958205,-20.591874 0,-11.862962 9.240459,-20.361631 21.958205,-20.361631 12.720109,-4.73e-4 21.960568,8.554457 21.960568,20.361631 z m -30.343407,0.05721 c 0,5.476195 3.990725,9.524599 8.555403,9.524599 4.561841,0 8.212165,-4.048404 8.212165,-9.524599 0,-5.474777 -3.650324,-9.410186 -8.212165,-9.410186 -4.619993,0 -8.555403,3.935409 -8.555403,9.410186 z"
       id="path5492" /><path
       style="fill:#ffffff"
       d="m 127.11174,50.525139 -4.79067,10.037564 c -4.05029,-2.223951 -10.2678,-4.676727 -13.74604,-4.676727 -1.48405,0 -2.45324,0.455759 -2.45324,1.653307 0,5.02091 20.70534,1.883078 20.70534,16.370434 0,8.897222 -7.81503,12.833104 -16.82714,12.833104 -6.95836,0 -14.715237,-2.33789 -20.019341,-6.387712 l 4.904606,-9.92457 c 4.107501,3.421499 11.179795,6.216094 15.229145,6.216094 1.93934,0 3.19362,-0.626905 3.19362,-2.053751 0,-5.189691 -20.704395,-1.767246 -20.704395,-15.797426 0,-7.98665 6.731422,-13.005195 17.111755,-13.005195 6.33145,4.73e-4 12.89078,1.882605 17.39636,4.734878 z"
       id="path5494" /><path
       id="path5496"
       transform="translate(0,1.9999962)"
       d="M 153.34766 43.960938 C 150.27901 43.960938 147.41969 44.478763 144.84375 45.423828 C 145.85315 46.146759 147.08755 46.576172 148.42773 46.576172 C 150.5098 46.576172 152.33192 45.540444 153.44531 43.964844 C 153.41292 43.964667 153.38002 43.960935 153.34766 43.960938 z M 154.89453 44.03125 C 153.62027 46.301259 151.21051 47.851562 148.42773 47.851562 C 146.54292 47.851562 144.824 47.140716 143.51172 45.980469 C 136.31633 49.17232 131.67383 55.900214 131.67383 64.267578 C 131.67383 76.187747 140.57105 84.916016 152.83398 84.916016 C 158.99476 84.916016 165.78262 81.778503 170.23242 76.929688 L 162.58789 68.771484 C 159.96539 71.566552 156.36991 73.335938 153.51953 73.335938 C 148.72697 73.335938 145.25 69.457013 145.25 64.095703 C 145.25 58.790654 148.72697 54.970703 153.51953 54.970703 C 156.59874 54.970703 160.19232 57.080259 162.58789 60.332031 L 170.23242 51.261719 C 169.0028 49.930043 167.53912 48.744366 165.93359 47.732422 C 162.12104 47.649022 158.62117 46.315112 155.82031 44.117188 C 155.51067 44.080199 155.20291 44.055767 154.89453 44.03125 z M 159.24414 44.791016 C 160.37156 45.357843 161.57314 45.796083 162.83594 46.080078 C 161.67174 45.560368 160.46684 45.126617 159.24414 44.791016 z "
       style="fill:#ffffff" /><path
       id="path5498"
       transform="translate(0,1.9999962)"
       d="M 175.19336 44.361328 L 175.19336 84.34375 L 209.53125 84.34375 L 209.53125 74.306641 L 188.42773 74.306641 L 188.42773 69.34375 L 207.13672 69.34375 L 207.13672 59.304688 L 188.42773 59.304688 L 188.42773 54.400391 L 209.01758 54.400391 L 209.01758 44.361328 L 207.78516 44.361328 C 206.42144 46.085527 204.31618 47.197266 201.95312 47.197266 C 199.73207 47.197266 197.74832 46.207927 196.38477 44.658203 C 194.00942 46.742062 190.90746 48.015625 187.50391 48.015625 C 183.94588 48.015625 180.72272 46.618515 178.3125 44.361328 L 175.19336 44.361328 z M 180.27539 44.361328 C 182.29717 45.854073 184.79356 46.740234 187.50391 46.740234 C 190.21342 46.740234 192.70617 45.850228 194.73047 44.361328 L 180.27539 44.361328 z M 197.86133 44.361328 C 198.94893 45.328737 200.37822 45.919922 201.95312 45.919922 C 203.52804 45.919922 204.95913 45.328737 206.04688 44.361328 L 197.86133 44.361328 z "
       style="fill:#ffffff" /><path
       style="fill:#ffffff"
       d="m 58.282731,91.501698 c 8.742623,0 15.427713,6.471394 15.427713,14.999852 0,8.52798 -6.727167,14.9989 -15.555363,14.9989 l -12.000068,0 0,-29.998279 12.127718,0 z m -8.698182,26.740832 8.740732,0 c 6.686508,0 11.914022,-5.01334 11.914022,-11.69938 0,-6.728585 -5.313559,-11.741457 -12.042618,-11.741457 l -8.612136,0 0,23.440837 z"
       id="path5500" /><path
       style="fill:#ffffff"
       d="m 99.865032,113.91424 -3.343018,7.58574 -3.641814,0 13.45575,-29.998282 3.55672,0 13.41367,29.998282 -3.72833,0 -3.34302,-7.58574 -16.369958,0 z m 8.142198,-18.512118 -6.68509,15.213068 13.45575,0 -6.77066,-15.213068 z"
       id="path5502" /><path
       style="fill:#ffffff"
       d="m 154.68561,121.49998 -3.3851,0 0,-10.15623 -11.61333,-19.842052 3.55577,0 9.72884,15.642352 9.59977,-15.642352 3.51416,0 -11.39964,19.712502 0,10.28578 z"
       id="path5504" /><path
       style="fill:#ffffff"
       d="m 207.2794,94.159187 -1.45711,3.213476 c -2.70051,-1.800814 -5.87191,-2.528893 -8.27031,-2.528893 -3.85788,0 -6.3863,1.457577 -6.3863,3.985997 0,7.713383 16.88482,3.685783 16.84227,14.570093 0,5.01476 -4.41386,8.22824 -10.84271,8.22824 -4.37178,0 -8.65705,-1.88544 -11.48521,-4.58501 l 1.54315,-3.0863 c 2.78561,2.70004 6.59952,4.24414 9.98461,4.24414 4.32829,0 7.0288,-1.75827 7.0288,-4.62851 0.0421,-7.88594 -16.84273,-3.68578 -16.84273,-14.442439 0,-4.714548 4.15761,-7.757352 10.37181,-7.757352 3.4702,-4.73e-4 7.02739,1.114812 9.51373,2.786558 z"
       id="path5506" /><path
       id="circle5182-5"
       transform="translate(0,1.9999962)"
       d="m 135.80078,23.917969 c -6.22122,0 -11.25,5.02879 -11.25,11.25 0,6.221214 5.02878,11.25 11.25,11.25 2.37158,0 4.56821,-0.733218 6.38086,-1.982422 0.11307,0.174913 0.23408,0.34352 0.36133,0.507812 -0.96909,-1.256064 -1.55274,-2.824156 -1.55274,-4.529297 0,-0.838817 0.14687,-1.64223 0.4043,-2.394531 -0.0191,0.05583 -0.0428,0.109521 -0.0606,0.166016 -3.39246,-2.452173 -5.61132,-6.430108 -5.61132,-10.929688 0,-1.148376 0.1608,-2.257464 0.43164,-3.322265 -0.11824,-0.0037 -0.23437,-0.01563 -0.35352,-0.01563 z m 1.63867,0.128906 C 137.1615,25.070951 137,26.142946 137,27.255859 c 0,3.976358 1.90234,7.49318 4.83789,9.722657 -0.005,0.01031 -0.0103,0.02092 -0.0156,0.03125 1.10234,-2.124976 3.19899,-3.654932 5.67187,-3.966797 -0.21373,0.02543 -0.42518,0.05876 -0.63281,0.103515 -0.85551,-4.722371 -4.64696,-8.402899 -9.42188,-9.099609 z m 10.21875,10.259766 c -0.006,7.44e-4 -0.0116,0.0031 -0.0176,0.0039 0.006,-7.34e-4 0.0118,-0.0012 0.0176,-0.002 a 11.889297,11.889297 0 0 0 0,-0.002 z m -0.64258,0.117187 c -1.81455,0.423663 -3.30154,1.652591 -4.10351,3.283203 1.0458,0.631482 2.19377,1.108885 3.41211,1.408203 0.46276,-1.228588 0.72851,-2.554464 0.72851,-3.947265 0,-0.251077 -0.0209,-0.497213 -0.0371,-0.744141 z m -5.39843,3.025391 c -0.0241,0.05476 -0.0495,0.108632 -0.0723,0.164062 0.0227,-0.05551 0.0482,-0.109232 0.0723,-0.164062 z m 1.07226,0.746093 c -0.0443,0.114674 -0.0816,0.231686 -0.11914,0.34961 0.0374,-0.117644 0.075,-0.235209 0.11914,-0.34961 z m -0.21875,0.728516 c -0.11941,0.479285 -0.20312,0.972897 -0.20312,1.490234 0,1.187648 0.35151,2.28221 0.93164,3.220704 1.06548,-0.931433 1.94274,-2.067304 2.59766,-3.335938 -1.17817,-0.312477 -2.29505,-0.776975 -3.32618,-1.375 z"
       style="fill:#ffffff;fill-opacity:1;stroke:none;stroke-width:4;stroke-opacity:1" /><path
       id="circle5180-0"
       transform="translate(0,1.9999962)"
       d="m 147.70508,6.7558594 c -3.23975,0 -5.85352,2.6118153 -5.85352,5.8515626 0,1.05364 0.28125,2.037941 0.76563,2.890625 -0.10933,0.06153 -0.21079,0.134866 -0.31836,0.199219 2.02513,-1.216312 4.38481,-1.931641 6.91601,-1.931641 0.23539,0 0.46524,0.01859 0.69727,0.03125 -0.0262,-0.330473 -0.0508,-0.662862 -0.0508,-1 0,-1.804235 0.39146,-3.5155178 1.08008,-5.0664062 -0.92623,-0.6144901 -2.03777,-0.9746094 -3.23633,-0.9746094 z m 4.25195,1.8339844 c -0.52409,1.3003926 -0.81836,2.7173122 -0.81836,4.2070312 0,0.381551 0.0197,0.75916 0.0566,1.130859 0.84036,0.130331 1.65783,0.331531 2.44141,0.607422 -0.12163,-0.04186 -0.2386,-0.09363 -0.36133,-0.132812 0.18116,-0.5654 0.28125,-1.168218 0.28125,-1.794922 0,-1.560024 -0.60992,-2.97025 -1.59961,-4.0175782 z m -2.74219,6.4511722 c -2.12011,0 -4.10463,0.55078 -5.83984,1.5 1.06942,1.177083 2.60894,1.919922 4.33008,1.919922 1.14448,0 2.20295,-0.33451 3.10156,-0.900391 -0.32641,-0.791359 -0.56752,-1.623618 -0.72656,-2.486328 -0.28543,-0.02122 -0.57409,-0.0332 -0.86524,-0.0332 z m 2.20118,0.216796 c 0.11211,0.503338 0.26252,0.991524 0.43945,1.466797 0.34041,-0.344453 0.64123,-0.728275 0.88867,-1.148437 -0.43275,-0.13141 -0.87738,-0.233064 -1.32812,-0.31836 z m 1.64062,0.417969 c 0.10205,0.03417 0.20197,0.07251 0.30274,0.109375 a 6.4908762,6.4908762 0 0 0 0.008,-0.01172 c -0.10163,-0.03677 -0.20772,-0.06344 -0.31055,-0.09766 z m -10.06055,1.082031 c -0.0607,0.03602 -0.12358,0.06846 -0.18359,0.105469 a 6.4908762,6.4908762 0 0 0 0.006,0.0059 c 0.0592,-0.0371 0.11779,-0.07527 0.17773,-0.111329 z"
       style="fill:#ffffff;fill-opacity:1;stroke:none;stroke-width:4;stroke-opacity:1" /><path
       id="circle5184-2"
       transform="translate(0,1.9999962)"
       d="m 149.21484,15.041016 c -6.7535,0 -12.21484,5.461341 -12.21484,12.214843 0,3.976358 1.90234,7.49318 4.83789,9.722657 -0.0914,0.174561 -0.17406,0.353386 -0.25195,0.535156 1.13326,-2.662738 3.77063,-4.53711 6.84179,-4.53711 0.34753,0 0.68656,0.03543 1.02149,0.08203 -0.10596,-0.76194 -0.16602,-1.53879 -0.16602,-2.330078 0,-3.784198 1.2446,-7.274853 3.33985,-10.09961 -1.27163,-1.58308 -2.1606,-3.4807 -2.54297,-5.55664 -0.28589,-0.02003 -0.57417,-0.03125 -0.86524,-0.03125 z m 2.19922,0.207031 c 0.35788,1.61349 1.06348,3.091741 2.03125,4.361328 0.78819,-0.908727 1.66559,-1.736942 2.62696,-2.462891 -1.37637,-0.934641 -2.95716,-1.588353 -4.65821,-1.898437 z m 6.23828,2.326172 c -0.18177,0.119781 -0.35679,0.24801 -0.5332,0.375 0.17782,-0.128038 0.36702,-0.239912 0.55078,-0.359375 a 12.853097,12.853097 0 0 0 -0.0176,-0.01563 z m -0.5332,0.375 c -1.05408,0.758797 -2.00697,1.646922 -2.84375,2.636719 1.73443,1.806767 4.06413,3.029136 6.67969,3.361328 -0.66674,-2.367863 -2.01281,-4.44832 -3.83594,-5.998047 z m -3.63281,3.652343 c -1.83869,2.572782 -2.92578,5.718479 -2.92578,9.126954 0,3.232261 0.97387,6.23198 2.64062,8.730468 a 12.853097,12.853097 0 0 0 0.0254,-0.0098 c -0.1184,-0.177727 -0.24384,-0.350306 -0.35547,-0.533203 0.4674,-0.146135 0.91816,-0.328427 1.35938,-0.527344 -0.53446,-1.538766 -1.65021,-2.800805 -3.09961,-3.507813 -0.13479,-0.494385 -0.24737,-0.997191 -0.33398,-1.509765 2.315,0.781159 4.1073,2.675528 4.77343,5.039062 a 12.853097,12.853097 0 0 0 0.004,-0.002 c -0.059,-0.204845 -0.1263,-0.405493 -0.20117,-0.603515 3.62276,-2.117621 6.05468,-6.043578 6.05468,-10.548829 0,-0.679327 -0.0732,-1.339665 -0.17968,-1.988281 -3.02466,-0.274309 -5.74141,-1.623448 -7.76172,-3.666016 z m -5.0586,12.652344 c -2.43433,0 -4.51504,1.412127 -5.51562,3.455078 1.84097,1.111431 3.99237,1.761719 6.30273,1.761719 0.81093,0 1.60076,-0.08216 2.36719,-0.232422 0.0725,0.124961 0.15413,0.243531 0.22852,0.367188 -0.9777,-1.590754 -1.71282,-3.345962 -2.12891,-5.222657 -0.40479,-0.08322 -0.82399,-0.128906 -1.25391,-0.128906 z m -5.7539,3.978516 c -0.007,0.01949 -0.0182,0.03705 -0.0254,0.05664 a 12.853097,12.853097 0 0 0 0.002,0 c 0.007,-0.0193 0.0162,-0.03743 0.0234,-0.05664 z"
       style="fill:#ffffff;fill-opacity:1;stroke:none;stroke-width:4;stroke-opacity:1" /><path
       id="circle5194-9"
       transform="translate(0,1.9999962)"
       d="m 149.61133,33.9375 c 0.0269,0.147893 0.0441,0.299135 0.0762,0.445312 -0.40653,-0.08397 -0.82786,-0.128906 -1.25977,-0.128906 -3.41024,0 -6.16015,2.749914 -6.16015,6.160156 0,3.410242 2.74991,6.16211 6.16015,6.16211 2.62086,0 4.84736,-1.627328 5.74024,-3.927734 0.12208,0.12431 0.25593,0.236224 0.38281,0.355468 -2.49838,-2.393565 -4.26223,-5.533541 -4.93945,-9.066406 z m 1.31836,0.160156 c 0.0576,0.264744 0.13046,0.523672 0.20117,0.783203 -0.0687,-0.251967 -0.11326,-0.51301 -0.16992,-0.769531 a 6.7995853,6.7995853 0 0 0 -0.0312,-0.01367 z m 0.20117,0.783203 c 0.71897,2.638926 2.09529,5.002396 3.95898,6.894532 a 6.7995853,6.7995853 0 0 0 0.006,-0.03711 c -0.18561,-0.188649 -0.38056,-0.368119 -0.55664,-0.566406 0.0304,-0.248875 0.0508,-0.500545 0.0508,-0.757813 0,-2.438468 -1.41036,-4.533902 -3.45898,-5.533203 z"
       style="fill:#ffffff;fill-opacity:1;stroke:none;stroke-width:4;stroke-opacity:1" /><path
       id="circle5186-4"
       transform="translate(0,1.9999962)"
       d="M 175.42773 10.794922 C 175.19616 10.794922 174.97017 10.814295 174.74219 10.828125 C 174.84501 11.471089 174.91602 12.1248 174.91602 12.796875 C 174.91602 13.85007 174.77094 14.867952 174.52539 15.845703 C 177.57505 17.529882 180.04588 20.121899 181.58594 23.253906 C 181.47881 23.026339 181.37617 22.796064 181.25586 22.576172 C 182.88121 21.723431 184.69817 21.188046 186.62695 21.0625 C 186.12989 15.303412 181.31744 10.794922 175.42773 10.794922 z M 173.46875 10.974609 C 171.30577 11.356655 169.35668 12.350316 167.80859 13.777344 C 167.5308 13.753004 167.24763 13.748125 166.9668 13.734375 C 169.2411 13.821735 171.40117 14.355489 173.36328 15.25 C 173.53872 14.459692 173.63867 13.640602 173.63867 12.796875 C 173.63867 12.173578 173.56787 11.569287 173.46875 10.974609 z M 166.30859 14.978516 C 166.42664 14.978516 166.54078 14.993514 166.6582 14.996094 C 165.10703 16.92428 164.17578 19.37327 164.17578 22.044922 C 164.17578 22.667554 164.23898 23.274207 164.33594 23.869141 C 168.39116 23.162568 171.68962 20.295184 173.00977 16.488281 C 170.97451 15.529651 168.70936 14.978516 166.30859 14.978516 z M 174.14648 17.078125 C 172.63954 21.20656 169.02748 24.314578 164.60938 25.109375 C 165.82521 29.41765 169.53196 32.666821 174.08398 33.208984 C 174.49134 29.031161 176.80558 25.411221 180.14844 23.228516 C 178.75351 20.666117 176.67365 18.531288 174.14648 17.078125 z M 186.66211 22.363281 C 184.92032 22.483348 183.27507 22.946648 181.81055 23.71875 C 182.69519 25.666039 183.22533 27.80864 183.3125 30.066406 C 185.31654 28.096029 186.57748 25.379886 186.66211 22.363281 z M 180.26953 23.447266 C 180.41242 23.725188 180.55013 24.00632 180.67773 24.292969 C 180.54912 24.006906 180.41446 23.723914 180.26953 23.447266 z M 180.71289 24.369141 C 177.76247 26.344309 175.72944 29.571768 175.35742 33.294922 C 175.38105 33.295067 175.40407 33.296875 175.42773 33.296875 C 177.9025 33.296875 180.18105 32.49082 182.03711 31.140625 C 182.04311 31.002958 182.05859 30.867669 182.05859 30.728516 C 182.05859 28.462267 181.57617 26.312964 180.71484 24.369141 C 180.71473 24.368889 180.713 24.369392 180.71289 24.369141 z M 182.03711 31.140625 C 182.03011 31.417266 181.99551 31.686268 181.97461 31.958984 A 11.889297 11.889297 0 0 0 181.99609 31.947266 C 182.01659 31.680204 182.02541 31.41007 182.03711 31.140625 z "
       style="fill:#ffffff;fill-opacity:1;stroke:none;stroke-width:4;stroke-opacity:1" /><path
       id="circle5188-5"
       transform="translate(0,1.9999962)"
       d="m 162.38867,1.546875 c -6.22103,0 -11.25,5.0289636 -11.25,11.25 0,2.564491 0.86425,4.91993 2.30469,6.810547 3.1225,-3.610521 7.72288,-5.90625 12.86523,-5.90625 2.51943,0 4.9032,0.566301 7.05469,1.552734 0.17598,-0.791446 0.27539,-1.611984 0.27539,-2.457031 0,-6.2210364 -5.02896,-11.25 -11.25,-11.25 z m 3.91992,13.431641 c -4.83594,0 -9.12899,2.199361 -12.01562,5.625 2.04521,2.121152 4.91101,3.445312 8.0957,3.445312 4.92666,0 9.09529,-3.160166 10.6211,-7.5625 -2.0342,-0.959725 -4.30069,-1.507812 -6.70118,-1.507812 z"
       style="fill:#ffffff;fill-opacity:1;stroke:none;stroke-width:4;stroke-opacity:1" /><path
       id="circle5190-9"
       transform="translate(0,1.9999962)"
       d="m 201.95312,33.597656 c -0.34385,0 -0.67756,0.0341 -1.00585,0.08789 0.0188,0.279403 0.0488,0.555891 0.0488,0.839844 0,3.587616 -1.42303,6.834643 -3.71289,9.251953 1.12862,1.311803 2.798,2.142578 4.66992,2.142578 3.41043,0 6.16211,-2.749735 6.16211,-6.160156 0,-3.410417 -2.75169,-6.16211 -6.16211,-6.16211 z m -2.25976,0.431641 c -2.28576,0.899696 -3.90039,3.119811 -3.90039,5.730469 0,1.073926 0.27369,2.081109 0.75391,2.958984 1.9646,-2.16699 3.17187,-5.033183 3.17187,-8.193359 0,-0.167529 -0.0178,-0.330488 -0.0254,-0.496094 z"
       style="fill:#ffffff;fill-opacity:1;stroke:none;stroke-width:4;stroke-opacity:1" /><path
       id="circle5192-9"
       transform="translate(0,1.9999962)"
       d="m 187.50391,22.310547 c -2.05791,0 -3.99338,0.511969 -5.69336,1.408203 -0.0615,-0.135568 -0.13242,-0.265662 -0.19532,-0.400391 1.09023,2.243009 1.72071,4.750931 1.72071,7.410157 0,4.85501 -2.05217,9.223446 -5.31836,12.326172 0.13546,-0.124947 0.27675,-0.243773 0.40625,-0.375 2.23495,2.486962 5.4676,4.060546 9.08008,4.060546 6.75351,0 12.21484,-5.461337 12.21484,-12.214843 0,-6.753502 -5.46133,-12.214844 -12.21484,-12.214844 z m -6.81446,2.078125 c -3.25708,2.192264 -5.40039,5.909415 -5.40039,10.136719 0,2.670547 0.86427,5.130179 2.31446,7.138671 2.74603,-2.83261 4.45507,-6.67373 4.45507,-10.935546 0,-2.263132 -0.50925,-4.397102 -1.36914,-6.339844 z m -3.36523,17.566406 c -0.0568,0.05522 -0.11421,0.109731 -0.17188,0.164063 a 12.853097,12.853097 0 0 0 0.008,0.0098 c 0.0577,-0.05493 0.10717,-0.11804 0.16406,-0.173828 z"
       style="fill:#ffffff;fill-opacity:1;stroke:none;stroke-width:4;stroke-opacity:1" /><path
       id="path5196-9"
       transform="translate(0,1.9999962)"
       d="m 166.30859,14.978516 c -8.70519,0 -15.74804,7.044185 -15.74804,15.75 0,8.704839 7.04249,15.746093 15.74804,15.746093 8.70554,0 15.75,-7.04127 15.75,-15.746093 0,-8.705803 -7.04482,-15.75 -15.75,-15.75 z"
       style="fill:#ffffff;fill-opacity:1;stroke:none;stroke-width:4;stroke-opacity:1" /></g><g
     transform="translate(0,-2)"
     style="display:none"
     id="layer3"><g
       transform="matrix(0.9353277,0,0,0.9353277,12.544096,7.522301)"
       id="g5448"><path
         style="fill:#ffffff"
         id="path4301"
         d="m 93.500731,73.830603 c 0,8.005768 -6.235464,13.895403 -14.818997,13.895403 -8.581939,0 -14.817403,-5.851351 -14.817403,-13.895403 0,-8.00513 6.235464,-13.740034 14.817403,-13.740034 8.583533,-3.19e-4 14.818997,5.77255 14.818997,13.740034 z m -20.475739,0.0386 c 0,3.695338 2.692942,6.427202 5.773188,6.427202 3.078332,0 5.541571,-2.731864 5.541571,-6.427202 0,-3.694381 -2.463239,-6.349997 -5.541571,-6.349997 -3.117573,0 -5.773188,2.655616 -5.773188,6.349997 z" /><path
         style="fill:#ffffff"
         id="path4303"
         d="m 120.98176,63.169858 -3.23275,6.77335 c -2.73314,-1.500722 -6.92871,-3.155856 -9.27583,-3.155856 -1.00144,0 -1.65545,0.307546 -1.65545,1.115652 0,3.388111 13.97197,1.270701 13.97197,11.046773 0,6.003848 -5.27358,8.659782 -11.35496,8.659782 -4.6955,0 -9.929842,-1.577609 -13.509053,-4.31043 l 3.30963,-6.697102 c 2.771743,2.308828 7.544133,4.194622 10.276633,4.194622 1.30866,0 2.15505,-0.423036 2.15505,-1.385872 0,-3.502005 -13.971328,-1.192538 -13.971328,-10.660107 0,-5.389394 4.542368,-8.77591 11.547018,-8.77591 4.27246,3.19e-4 8.6987,1.270382 11.73907,3.195098 z" /><path
         style="fill:#ffffff"
         id="path4305"
         d="m 150.079,65.016729 -5.1581,6.120294 c -1.61653,-2.194296 -4.04085,-3.618133 -6.1187,-3.618133 -3.23402,0 -5.58113,2.57841 -5.58113,6.158259 0,3.617814 2.34711,6.235145 5.58113,6.235145 1.92344,0 4.34903,-1.193495 6.1187,-3.079608 l 5.1581,5.503926 c -3.00273,3.271984 -7.5821,5.389394 -11.73939,5.389394 -8.27504,0 -14.2792,-5.889635 -14.2792,-13.933368 0,-7.9292 6.15826,-13.702069 14.62534,-13.702069 4.1187,-3.19e-4 8.62182,1.924715 11.39325,4.92616 z" /><path
         style="fill:#ffffff"
         id="path4307"
         d="m 162.35755,67.134139 0,3.309629 12.6247,0 0,6.774627 -12.6247,0 0,3.348551 14.24123,0 0,6.773032 -23.17091,0 0,-26.980466 22.8238,0 0,6.774308 -13.89412,0 z" /><path
         style="fill:#ffffff"
         id="path4309"
         d="m 74.535924,96.763521 c 5.899524,0 10.410625,4.366899 10.410625,10.121899 0,5.75469 -4.539495,10.12127 -10.496764,10.12127 l -8.097649,0 0,-20.24285 8.183788,0 z m -5.869536,18.044719 5.898248,0 c 4.512058,0 8.039586,-3.383 8.039586,-7.89474 0,-4.54045 -3.585591,-7.923142 -8.126362,-7.923142 l -5.811472,0 0,15.817882 z" /><path
         style="fill:#ffffff"
         id="path4311"
         d="m 102.59567,111.88751 -2.25587,5.11886 -2.457494,0 9.079944,-20.242849 2.40007,0 9.05156,20.242849 -2.51588,0 -2.25587,-5.11886 -11.04646,0 z m 5.49436,-12.491982 -4.5111,10.265782 9.07994,0 -4.56884,-10.265782 z" /><path
         style="fill:#ffffff"
         id="path4313"
         d="m 139.58861,117.00637 -2.28426,0 0,-6.85343 -7.83668,-13.389419 2.39943,0 6.56502,10.555469 6.47793,-10.555469 2.37136,0 -7.69248,13.302009 0,6.94084 z" /><path
         style="fill:#ffffff"
         id="path4315"
         d="m 175.07892,98.556795 -0.98326,2.168455 c -1.8223,-1.21519 -3.96237,-1.706498 -5.58081,-1.706498 -2.60329,0 -4.30947,0.983578 -4.30947,2.689748 0,5.205 11.39388,2.48717 11.36516,9.83191 0,3.38396 -2.97847,5.55241 -7.31666,5.55241 -2.95008,0 -5.84178,-1.27229 -7.75022,-3.09396 l 1.04132,-2.08263 c 1.87973,1.82198 4.45335,2.86394 6.73761,2.86394 2.92074,0 4.74304,-1.18648 4.74304,-3.12332 0.0284,-5.32144 -11.36548,-2.48716 -11.36548,-9.74576 0,-3.18138 2.80556,-5.234665 6.9989,-5.234665 2.34169,-3.19e-4 4.74208,0.752276 6.41987,1.88037 z" /><g
         id="g5279"
         transform="matrix(0.40379412,0,0,0.40379412,54.834136,-27.255249)"><circle
           cx="69.573486"
           cy="170.02148"
           r="37.242001"
           id="circle5182"
           style="fill:#ffffff;fill-opacity:1;stroke:none;stroke-width:4;stroke-opacity:1" /><circle
           cx="106.85648"
           cy="99.355484"
           r="20.332001"
           id="circle5180"
           style="fill:#ffffff;fill-opacity:1;stroke:none;stroke-width:4;stroke-opacity:1" /><path
           id="circle265"
           d="m 106.85742,77.023438 c -12.309932,0 -22.332029,10.022097 -22.332029,22.332031 0,12.309931 10.022097,22.332031 22.332029,22.332031 12.30994,0 22.33203,-10.0221 22.33203,-22.332031 0,-12.309934 -10.02209,-22.332032 -22.33203,-22.332031 z m 0,4 c 10.14818,0 18.33203,8.183857 18.33203,18.332031 0,10.148171 -8.18385,18.332031 -18.33203,18.332031 -10.148172,0 -18.332029,-8.18386 -18.332029,-18.332031 0,-10.148174 8.183857,-18.332031 18.332029,-18.332031 z"
           style="color:#000000;font-style:normal;font-variant:normal;font-weight:normal;font-stretch:normal;font-size:medium;line-height:normal;font-family:sans-serif;text-indent:0;text-align:start;text-decoration:none;text-decoration-line:none;text-decoration-style:solid;text-decoration-color:#000000;letter-spacing:normal;word-spacing:normal;text-transform:none;direction:ltr;block-progression:tb;writing-mode:lr-tb;baseline-shift:baseline;text-anchor:start;white-space:normal;clip-rule:nonzero;display:inline;overflow:visible;visibility:visible;opacity:1;isolation:auto;mix-blend-mode:normal;color-interpolation:sRGB;color-interpolation-filters:linearRGB;solid-color:#000000;solid-opacity:1;fill:#026699;fill-opacity:1;fill-rule:nonzero;stroke:none;stroke-width:4;stroke-linecap:butt;stroke-linejoin:miter;stroke-miterlimit:4;stroke-dasharray:none;stroke-dashoffset:0;stroke-opacity:1;color-rendering:auto;image-rendering:auto;shape-rendering:auto;text-rendering:auto;enable-background:accumulate" /><path
           id="circle272"
           d="m 69.574219,130.7793 c -21.649069,0 -39.242188,17.59312 -39.242188,39.24218 0,21.64907 17.593119,39.24219 39.242188,39.24219 21.649069,0 39.242191,-17.59312 39.242191,-39.24219 0,-21.64906 -17.593122,-39.24218 -39.242191,-39.24218 z m 0,4 c 19.487308,0 35.242191,15.75488 35.242191,35.24218 0,19.48731 -15.754883,35.24219 -35.242191,35.24219 -19.487309,0 -35.242188,-15.75488 -35.242188,-35.24219 0,-19.4873 15.754879,-35.24218 35.242188,-35.24218 z"
           style="color:#000000;font-style:normal;font-variant:normal;font-weight:normal;font-stretch:normal;font-size:medium;line-height:normal;font-family:sans-serif;text-indent:0;text-align:start;text-decoration:none;text-decoration-line:none;text-decoration-style:solid;text-decoration-color:#000000;letter-spacing:normal;word-spacing:normal;text-transform:none;direction:ltr;block-progression:tb;writing-mode:lr-tb;baseline-shift:baseline;text-anchor:start;white-space:normal;clip-rule:nonzero;display:inline;overflow:visible;visibility:visible;opacity:1;isolation:auto;mix-blend-mode:normal;color-interpolation:sRGB;color-interpolation-filters:linearRGB;solid-color:#000000;solid-opacity:1;fill:#026699;fill-opacity:1;fill-rule:nonzero;stroke:none;stroke-width:4;stroke-linecap:butt;stroke-linejoin:miter;stroke-miterlimit:4;stroke-dasharray:none;stroke-dashoffset:0;stroke-opacity:1;color-rendering:auto;image-rendering:auto;shape-rendering:auto;text-rendering:auto;enable-background:accumulate" /><circle
           cx="111.58749"
           cy="145.24048"
           r="40.261002"
           id="circle5184"
           style="fill:#ffffff;fill-opacity:1;stroke:none;stroke-width:4;stroke-opacity:1" /><path
           id="circle279"
           d="m 111.58789,102.97852 c -23.316417,0 -42.261718,18.9453 -42.261718,42.26171 0,23.31642 18.945301,42.26172 42.261718,42.26172 23.31642,0 42.25977,-18.9453 42.25977,-42.26172 0,-23.31641 -18.94335,-42.26171 -42.25977,-42.26171 z m 0,4 c 21.15466,0 38.25977,17.10706 38.25977,38.26171 0,21.15466 -17.10511,38.26172 -38.25977,38.26172 -21.154656,0 -38.261718,-17.10706 -38.261718,-38.26172 0,-21.15465 17.107062,-38.26171 38.261718,-38.26171 z"
           style="color:#000000;font-style:normal;font-variant:normal;font-weight:normal;font-stretch:normal;font-size:medium;line-height:normal;font-family:sans-serif;text-indent:0;text-align:start;text-decoration:none;text-decoration-line:none;text-decoration-style:solid;text-decoration-color:#000000;letter-spacing:normal;word-spacing:normal;text-transform:none;direction:ltr;block-progression:tb;writing-mode:lr-tb;baseline-shift:baseline;text-anchor:start;white-space:normal;clip-rule:nonzero;display:inline;overflow:visible;visibility:visible;opacity:1;isolation:auto;mix-blend-mode:normal;color-interpolation:sRGB;color-interpolation-filters:linearRGB;solid-color:#000000;solid-opacity:1;fill:#026699;fill-opacity:1;fill-rule:nonzero;stroke:none;stroke-width:4;stroke-linecap:butt;stroke-linejoin:miter;stroke-miterlimit:4;stroke-dasharray:none;stroke-dashoffset:0;stroke-opacity:1;color-rendering:auto;image-rendering:auto;shape-rendering:auto;text-rendering:auto;enable-background:accumulate" /><circle
           cx="109.12448"
           cy="186.45549"
           r="21.299"
           id="circle5194"
           style="fill:#ffffff;fill-opacity:1;stroke:none;stroke-width:4;stroke-opacity:1" /><circle
           cx="193.6965"
           cy="128.91647"
           r="37.242001"
           id="circle5186"
           style="fill:#ffffff;fill-opacity:1;stroke:none;stroke-width:4;stroke-opacity:1" /><path
           id="circle286"
           d="m 193.69727,89.673828 c -21.64907,0 -39.24219,17.593122 -39.24219,39.242192 0,21.64906 17.59312,39.24218 39.24219,39.24218 21.64906,0 39.24218,-17.59312 39.24218,-39.24218 0,-21.64907 -17.59312,-39.242192 -39.24218,-39.242192 z m 0,4 c 19.4873,0 35.24218,15.754882 35.24218,35.242192 0,19.4873 -15.75488,35.24218 -35.24218,35.24218 -19.48731,0 -35.24219,-15.75488 -35.24219,-35.24218 0,-19.48731 15.75488,-35.242192 35.24219,-35.242192 z"
           style="color:#000000;font-style:normal;font-variant:normal;font-weight:normal;font-stretch:normal;font-size:medium;line-height:normal;font-family:sans-serif;text-indent:0;text-align:start;text-decoration:none;text-decoration-line:none;text-decoration-style:solid;text-decoration-color:#000000;letter-spacing:normal;word-spacing:normal;text-transform:none;direction:ltr;block-progression:tb;writing-mode:lr-tb;baseline-shift:baseline;text-anchor:start;white-space:normal;clip-rule:nonzero;display:inline;overflow:visible;visibility:visible;opacity:1;isolation:auto;mix-blend-mode:normal;color-interpolation:sRGB;color-interpolation-filters:linearRGB;solid-color:#000000;solid-opacity:1;fill:#026699;fill-opacity:1;fill-rule:nonzero;stroke:none;stroke-width:4;stroke-linecap:butt;stroke-linejoin:miter;stroke-miterlimit:4;stroke-dasharray:none;stroke-dashoffset:0;stroke-opacity:1;color-rendering:auto;image-rendering:auto;shape-rendering:auto;text-rendering:auto;enable-background:accumulate" /><circle
           cx="152.8555"
           cy="99.948486"
           r="37.241001"
           id="circle5188"
           style="fill:#ffffff;fill-opacity:1;stroke:none;stroke-width:4;stroke-opacity:1" /><path
           id="circle293"
           d="m 152.85547,60.707031 c -21.64852,0 -39.24024,17.593671 -39.24024,39.242188 0,21.648521 17.59172,39.240231 39.24024,39.240231 21.64852,0 39.24023,-17.59171 39.24023,-39.240231 0,-21.648517 -17.59171,-39.242188 -39.24023,-39.242188 z m 0,4 c 19.48676,0 35.24023,15.755431 35.24023,35.242188 0,19.486761 -15.75347,35.240231 -35.24023,35.240231 -19.48676,0 -35.24024,-15.75347 -35.24024,-35.240231 0,-19.486757 15.75348,-35.242188 35.24024,-35.242188 z"
           style="color:#000000;font-style:normal;font-variant:normal;font-weight:normal;font-stretch:normal;font-size:medium;line-height:normal;font-family:sans-serif;text-indent:0;text-align:start;text-decoration:none;text-decoration-line:none;text-decoration-style:solid;text-decoration-color:#000000;letter-spacing:normal;word-spacing:normal;text-transform:none;direction:ltr;block-progression:tb;writing-mode:lr-tb;baseline-shift:baseline;text-anchor:start;white-space:normal;clip-rule:nonzero;display:inline;overflow:visible;visibility:visible;opacity:1;isolation:auto;mix-blend-mode:normal;color-interpolation:sRGB;color-interpolation-filters:linearRGB;solid-color:#000000;solid-opacity:1;fill:#026699;fill-opacity:1;fill-rule:nonzero;stroke:none;stroke-width:4;stroke-linecap:butt;stroke-linejoin:miter;stroke-miterlimit:4;stroke-dasharray:none;stroke-dashoffset:0;stroke-opacity:1;color-rendering:auto;image-rendering:auto;shape-rendering:auto;text-rendering:auto;enable-background:accumulate" /><circle
           cx="276.78949"
           cy="184.40248"
           r="21.299999"
           id="circle5190"
           style="fill:#ffffff;fill-opacity:1;stroke:none;stroke-width:4;stroke-opacity:1" /><path
           id="circle300"
           d="m 276.78906,161.10156 c -12.84454,0 -23.29883,10.45624 -23.29883,23.30078 0,12.84455 10.45429,23.30078 23.29883,23.30078 12.84455,0 23.30078,-10.45623 23.30078,-23.30078 0,-12.84454 -10.45623,-23.30078 -23.30078,-23.30078 z m 0,4 c 10.68279,0 19.30078,8.618 19.30078,19.30078 0,10.68279 -8.61799,19.30078 -19.30078,19.30078 -10.68278,0 -19.29883,-8.61799 -19.29883,-19.30078 0,-10.68278 8.61605,-19.30078 19.29883,-19.30078 z"
           style="color:#000000;font-style:normal;font-variant:normal;font-weight:normal;font-stretch:normal;font-size:medium;line-height:normal;font-family:sans-serif;text-indent:0;text-align:start;text-decoration:none;text-decoration-line:none;text-decoration-style:solid;text-decoration-color:#000000;letter-spacing:normal;word-spacing:normal;text-transform:none;direction:ltr;block-progression:tb;writing-mode:lr-tb;baseline-shift:baseline;text-anchor:start;white-space:normal;clip-rule:nonzero;display:inline;overflow:visible;visibility:visible;opacity:1;isolation:auto;mix-blend-mode:normal;color-interpolation:sRGB;color-interpolation-filters:linearRGB;solid-color:#000000;solid-opacity:1;fill:#026699;fill-opacity:1;fill-rule:nonzero;stroke:none;stroke-width:4;stroke-linecap:butt;stroke-linejoin:miter;stroke-miterlimit:4;stroke-dasharray:none;stroke-dashoffset:0;stroke-opacity:1;color-rendering:auto;image-rendering:auto;shape-rendering:auto;text-rendering:auto;enable-background:accumulate" /><circle
           cx="231.52548"
           cy="168.00749"
           r="40.261002"
           id="circle5192"
           style="fill:#ffffff;fill-opacity:1;stroke:none;stroke-width:4;stroke-opacity:1" /><path
           id="circle307"
           d="m 231.52539,125.74609 c -23.31642,0 -42.26172,18.94531 -42.26172,42.26172 0,23.31642 18.9453,42.25977 42.26172,42.25977 23.31642,0 42.26172,-18.94335 42.26172,-42.25977 0,-23.31641 -18.9453,-42.26172 -42.26172,-42.26172 z m 0,4 c 21.15466,0 38.26172,17.10707 38.26172,38.26172 0,21.15466 -17.10706,38.25977 -38.26172,38.25977 -21.15466,0 -38.26172,-17.10511 -38.26172,-38.25977 0,-21.15465 17.10706,-38.26172 38.26172,-38.26172 z"
           style="color:#000000;font-style:normal;font-variant:normal;font-weight:normal;font-stretch:normal;font-size:medium;line-height:normal;font-family:sans-serif;text-indent:0;text-align:start;text-decoration:none;text-decoration-line:none;text-decoration-style:solid;text-decoration-color:#000000;letter-spacing:normal;word-spacing:normal;text-transform:none;direction:ltr;block-progression:tb;writing-mode:lr-tb;baseline-shift:baseline;text-anchor:start;white-space:normal;clip-rule:nonzero;display:inline;overflow:visible;visibility:visible;opacity:1;isolation:auto;mix-blend-mode:normal;color-interpolation:sRGB;color-interpolation-filters:linearRGB;solid-color:#000000;solid-opacity:1;fill:#026699;fill-opacity:1;fill-rule:nonzero;stroke:none;stroke-width:4;stroke-linecap:butt;stroke-linejoin:miter;stroke-miterlimit:4;stroke-dasharray:none;stroke-dashoffset:0;stroke-opacity:1;color-rendering:auto;image-rendering:auto;shape-rendering:auto;text-rendering:auto;enable-background:accumulate" /><path
           id="circle314"
           d="m 109.125,163.15625 c -12.843993,0 -23.298828,10.45484 -23.298828,23.29883 0,12.84399 10.454835,23.29883 23.298828,23.29883 12.84399,0 23.29883,-10.45484 23.29883,-23.29883 0,-12.84399 -10.45484,-23.29883 -23.29883,-23.29883 z m 0,4 c 10.68223,0 19.29883,8.6166 19.29883,19.29883 0,10.68223 -8.6166,19.29883 -19.29883,19.29883 -10.682233,0 -19.298828,-8.6166 -19.298828,-19.29883 0,-10.68223 8.616595,-19.29883 19.298828,-19.29883 z"
           style="color:#000000;font-style:normal;font-variant:normal;font-weight:normal;font-stretch:normal;font-size:medium;line-height:normal;font-family:sans-serif;text-indent:0;text-align:start;text-decoration:none;text-decoration-line:none;text-decoration-style:solid;text-decoration-color:#000000;letter-spacing:normal;word-spacing:normal;text-transform:none;direction:ltr;block-progression:tb;writing-mode:lr-tb;baseline-shift:baseline;text-anchor:start;white-space:normal;clip-rule:nonzero;display:inline;overflow:visible;visibility:visible;opacity:1;isolation:auto;mix-blend-mode:normal;color-interpolation:sRGB;color-interpolation-filters:linearRGB;solid-color:#000000;solid-opacity:1;fill:#026699;fill-opacity:1;fill-rule:nonzero;stroke:none;stroke-width:4;stroke-linecap:butt;stroke-linejoin:miter;stroke-miterlimit:4;stroke-dasharray:none;stroke-dashoffset:0;stroke-opacity:1;color-rendering:auto;image-rendering:auto;shape-rendering:auto;text-rendering:auto;enable-background:accumulate" /><path
           d="m 216.46949,156.11349 c 0,28.348 -22.984,51.328 -51.334,51.328 -28.35,0 -51.333,-22.98 -51.333,-51.328 0,-28.351 22.984,-51.333 51.333,-51.333 28.349,0 51.334,22.982 51.334,51.333 z"
           id="path5196"
           style="fill:#ffffff;fill-opacity:1;stroke:none;stroke-width:4;stroke-opacity:1" /><path
           id="path321"
           d="m 165.13477,102.78125 c -29.42991,0 -53.33204,23.90011 -53.33204,53.33203 0,29.42899 23.90126,53.32813 53.33204,53.32813 29.43077,0 53.33398,-23.89909 53.33398,-53.32813 0,-29.43197 -23.90408,-53.33203 -53.33398,-53.33203 z m 0,4 c 27.26809,0 49.33398,22.062 49.33398,49.33203 0,27.26696 -22.06476,49.32813 -49.33398,49.32813 -27.26923,0 -49.33204,-22.06112 -49.33204,-49.32813 0,-27.27007 22.06394,-49.33203 49.33204,-49.33203 z"
           style="color:#000000;font-style:normal;font-variant:normal;font-weight:normal;font-stretch:normal;font-size:medium;line-height:normal;font-family:sans-serif;text-indent:0;text-align:start;text-decoration:none;text-decoration-line:none;text-decoration-style:solid;text-decoration-color:#000000;letter-spacing:normal;word-spacing:normal;text-transform:none;direction:ltr;block-progression:tb;writing-mode:lr-tb;baseline-shift:baseline;text-anchor:start;white-space:normal;clip-rule:nonzero;display:inline;overflow:visible;visibility:visible;opacity:1;isolation:auto;mix-blend-mode:normal;color-interpolation:sRGB;color-interpolation-filters:linearRGB;solid-color:#000000;solid-opacity:1;fill:#026699;fill-opacity:1;fill-rule:nonzero;stroke:none;stroke-width:4;stroke-linecap:butt;stroke-linejoin:miter;stroke-miterlimit:4;stroke-dasharray:none;stroke-dashoffset:0;stroke-opacity:1;color-rendering:auto;image-rendering:auto;shape-rendering:auto;text-rendering:auto;enable-background:accumulate" /></g></g></g></svg>