<?xml version="1.0" encoding="UTF-8" standalone="no"?>
<svg
   xmlns:dc="http://purl.org/dc/elements/1.1/"
   xmlns:cc="http://creativecommons.org/ns#"
   xmlns:rdf="http://www.w3.org/1999/02/22-rdf-syntax-ns#"
   xmlns:svg="http://www.w3.org/2000/svg"
   xmlns="http://www.w3.org/2000/svg"
   width="16"
   height="16"
   id="svg2"
   version="1.1">
  <defs
     id="defs4" />
  <metadata
     id="metadata7">
    <rdf:RDF>
      <cc:Work
         rdf:about="">
        <dc:format>image/svg+xml</dc:format>
        <dc:type
           rdf:resource="http://purl.org/dc/dcmitype/StillImage" />
        <dc:title></dc:title>
      </cc:Work>
    </rdf:RDF>
  </metadata>
  <g
     style="fill:#ffffff"
     id="layer1"
     transform="translate(0,-1036.3622)">
    <path
       style="fill:#ffffff;fill-opacity:1;fill-rule:evenodd;stroke:none"
       d="m 7.7333309,1036.3622 c -2.2160195,0 -4.0000353,1.784 -4.0000353,3.9999 l 0,4.0001 -1.6000142,0 0,8 11.7334366,0 0,-8 -1.600014,0 0,-4.0001 c 0,-2.2159 -1.784015,-3.9999 -4.0000349,-3.9999 l -0.5333382,0 z M 8,1038.4956 c 1.1818761,0 2.133353,0.9513 2.133353,2.1332 0,0 -10e-4,0.011 -10e-4,0.011 l 10e-4,0 0,3.723 -4.2667052,0 0,-3.723 0.00107,0 c -1.65e-5,0 -0.00107,-0.011 -0.00107,-0.011 0,-1.1819 0.9514761,-2.1332 2.1333522,-2.1332 z"
       id="rect3272" />
  </g>
</svg>
