<?xml version="1.0" encoding="UTF-8" standalone="no"?>
<svg
   xmlns:dc="http://purl.org/dc/elements/1.1/"
   xmlns:cc="http://creativecommons.org/ns#"
   xmlns:rdf="http://www.w3.org/1999/02/22-rdf-syntax-ns#"
   xmlns:svg="http://www.w3.org/2000/svg"
   xmlns="http://www.w3.org/2000/svg"
   width="32"
   height="32"
   id="svg2"
   version="1.1">
  <metadata
     id="metadata27">
    <rdf:RDF>
      <cc:Work
         rdf:about="">
        <dc:format>image/svg+xml</dc:format>
        <dc:type
           rdf:resource="http://purl.org/dc/dcmitype/StillImage" />
        <dc:title></dc:title>
      </cc:Work>
    </rdf:RDF>
  </metadata>
  <defs
     id="defs4" />
  <g
     transform="matrix(0.69908263,0,0,0.69908267,-1.1034465,-1.6272752)"
     id="g4170">
    <rect
       style="fill:#4d4d4d;fill-opacity:1;fill-rule:evenodd;stroke:#003bc3;stroke-width:0;stroke-linecap:square;stroke-linejoin:miter;stroke-miterlimit:2.01260185"
       y="15.9797"
       x="4.4393201"
       id="shape0"
       stroke-miterlimit="2.01260185242"
       width="40.004005"
       height="27.775345" />
    <rect
       style="fill:#333333;fill-opacity:1;fill-rule:evenodd;stroke:#003bc3;stroke-width:0;stroke-linecap:square;stroke-linejoin:miter;stroke-miterlimit:2"
       y="9.2517004"
       x="4.4877901"
       id="shape1"
       stroke-miterlimit="2.00000000000"
       width="40.004005"
       height="7.0318441" />
    <rect
       style="fill:#ffffff;fill-opacity:1;fill-rule:evenodd;stroke:#003bc3;stroke-width:0;stroke-linecap:square;stroke-linejoin:miter;stroke-miterlimit:2"
       y="20.4569"
       x="10.4184"
       id="shape5"
       stroke-miterlimit="2.00000000000"
       width="5.31497"
       height="5.31497" />
    <rect
       style="fill:#ffffff;fill-opacity:1;fill-rule:evenodd;stroke:#003bc3;stroke-width:0;stroke-linecap:square;stroke-linejoin:miter;stroke-miterlimit:2"
       y="27.672701"
       x="10.4141"
       id="shape6"
       stroke-miterlimit="2.00000000000"
       width="5.31497"
       height="5.31497" />
    <rect
       style="fill:#ffffff;fill-opacity:1;fill-rule:evenodd;stroke:#003bc3;stroke-width:0;stroke-linecap:square;stroke-linejoin:miter;stroke-miterlimit:2"
       y="35.215199"
       x="10.4141"
       id="shape7"
       stroke-miterlimit="2.00000000000"
       width="5.31497"
       height="5.31497" />
    <rect
       style="fill:#ffffff;fill-opacity:1;fill-rule:evenodd;stroke:#003bc3;stroke-width:0;stroke-linecap:square;stroke-linejoin:miter;stroke-miterlimit:2"
       y="20.4396"
       x="18.0249"
       id="shape8"
       stroke-miterlimit="2.00000000000"
       width="5.31497"
       height="5.31497" />
    <rect
       style="fill:#ffffff;fill-opacity:1;fill-rule:evenodd;stroke:#003bc3;stroke-width:0;stroke-linecap:square;stroke-linejoin:miter;stroke-miterlimit:2"
       y="27.655399"
       x="18.020599"
       id="shape9"
       stroke-miterlimit="2.00000000000"
       width="5.31497"
       height="5.31497" />
    <rect
       style="fill:#ffffff;fill-opacity:1;fill-rule:evenodd;stroke:#003bc3;stroke-width:0;stroke-linecap:square;stroke-linejoin:miter;stroke-miterlimit:2"
       y="35.1978"
       x="18.020599"
       id="shape10"
       stroke-miterlimit="2.00000000000"
       width="5.31497"
       height="5.31497" />
    <rect
       style="fill:#ffffff;fill-opacity:1;fill-rule:evenodd;stroke:#003bc3;stroke-width:0;stroke-linecap:square;stroke-linejoin:miter;stroke-miterlimit:2"
       y="20.4482"
       x="25.4326"
       id="shape11"
       stroke-miterlimit="2.00000000000"
       width="5.31497"
       height="5.31497" />
    <rect
       style="fill:#ffffff;fill-opacity:1;fill-rule:evenodd;stroke:#003bc3;stroke-width:0;stroke-linecap:square;stroke-linejoin:miter;stroke-miterlimit:2"
       y="27.664101"
       x="25.428301"
       id="shape12"
       stroke-miterlimit="2.00000000000"
       width="5.31497"
       height="5.31497" />
    <rect
       style="fill:#ffffff;fill-opacity:1;fill-rule:evenodd;stroke:#003bc3;stroke-width:0;stroke-linecap:square;stroke-linejoin:miter;stroke-miterlimit:2"
       y="35.206501"
       x="25.428301"
       id="shape13"
       stroke-miterlimit="2.00000000000"
       width="5.31497"
       height="5.31497" />
    <rect
       style="fill:#151718;fill-opacity:1;fill-rule:evenodd;stroke:#003bc3;stroke-width:0;stroke-linecap:square;stroke-linejoin:miter;stroke-miterlimit:2"
       y="20.430901"
       x="33.039101"
       id="shape14"
       stroke-miterlimit="2.00000000000"
       width="5.31497"
       height="5.31497" />
    <rect
       style="fill:#151718;fill-opacity:1;fill-rule:evenodd;stroke:#003bc3;stroke-width:0;stroke-linecap:square;stroke-linejoin:miter;stroke-miterlimit:2"
       y="27.6467"
       x="33.034801"
       id="shape15"
       stroke-miterlimit="2.00000000000"
       width="5.31497"
       height="5.31497" />
    <rect
       style="fill:#151718;fill-opacity:1;fill-rule:evenodd;stroke:#003bc3;stroke-width:0;stroke-linecap:square;stroke-linejoin:miter;stroke-miterlimit:2"
       y="35.189201"
       x="33.034801"
       id="shape16"
       stroke-miterlimit="2.00000000000"
       width="5.31497"
       height="5.31497" />
    <rect
       style="fill:#151718"
       y="6.6746802"
       x="9.4253197"
       id="rect870"
       width="3"
       height="5.000001" />
    <rect
       style="fill:#151718"
       y="6.6746802"
       x="18.425301"
       id="rect872"
       width="3"
       height="5.000001" />
    <rect
       style="fill:#151718"
       y="6.6746802"
       x="27.425301"
       id="rect874"
       width="3"
       height="5.000001" />
    <rect
       style="fill:#151718"
       y="6.6746802"
       x="36.425301"
       id="rect876"
       width="3"
       height="5.000001" />
  </g>
</svg>
