<?xml version="1.0" encoding="UTF-8" standalone="no"?>
<svg
   xmlns:dc="http://purl.org/dc/elements/1.1/"
   xmlns:cc="http://creativecommons.org/ns#"
   xmlns:rdf="http://www.w3.org/1999/02/22-rdf-syntax-ns#"
   xmlns:svg="http://www.w3.org/2000/svg"
   xmlns="http://www.w3.org/2000/svg"
   version="1.1"
   id="svg4169"
   height="16"
   width="16">
  <defs
     id="defs4171" />
  <metadata
     id="metadata4174">
    <rdf:RDF>
      <cc:Work
         rdf:about="">
        <dc:format>image/svg+xml</dc:format>
        <dc:type
           rdf:resource="http://purl.org/dc/dcmitype/StillImage" />
        <dc:title></dc:title>
      </cc:Work>
    </rdf:RDF>
  </metadata>
  <g
     transform="translate(-16.497922,-1019.8622)"
     id="layer1">
    <rect
       y="1020.3622"
       x="16.997923"
       height="15"
       width="15"
       id="rect3260"
       style="fill:none;stroke:none" />
    <path
       transform="matrix(0,-0.71151545,-0.84025995,0,888.79657,1039.7658)"
       d="M 24.459955,1037.5345 9,1028.6086 l 15.459956,-8.9258 z"
       id="path3293"
       style="fill:#4d4d4d;fill-opacity:1;fill-rule:evenodd;stroke:none" />
    <ellipse
       ry="1.0000308"
       rx="1.0006928"
       cy="1027.8622"
       cx="24.497923"
       id="path3278"
       style="fill:none;fill-opacity:1;fill-rule:evenodd;stroke:none" />
    <ellipse
       ry="1.0000308"
       rx="1.0006928"
       cy="1027.8622"
       cx="24.497923"
       style="fill:none;fill-opacity:1;fill-rule:evenodd;stroke:none"
       id="path3280" />
  </g>
</svg>
