<?xml version="1.0" encoding="UTF-8" standalone="no"?>
<svg
   xmlns:dc="http://purl.org/dc/elements/1.1/"
   xmlns:cc="http://creativecommons.org/ns#"
   xmlns:rdf="http://www.w3.org/1999/02/22-rdf-syntax-ns#"
   xmlns:svg="http://www.w3.org/2000/svg"
   xmlns="http://www.w3.org/2000/svg"
   version="1.1"
   id="svg4169"
   height="16"
   width="16">
  <defs
     id="defs4171" />
  <metadata
     id="metadata4174">
    <rdf:RDF>
      <cc:Work
         rdf:about="">
        <dc:format>image/svg+xml</dc:format>
        <dc:type
           rdf:resource="http://purl.org/dc/dcmitype/StillImage" />
        <dc:title></dc:title>
      </cc:Work>
    </rdf:RDF>
  </metadata>
  <g
     transform="translate(-16.616072,-1018.7059)"
     id="layer1">
    <rect
       y="1022.0185"
       x="18.011847"
       height="12.687363"
       width="12.687363"
       id="rect3260"
       style="fill:none;stroke:none" />
    <ellipse
       ry="0.84585017"
       rx="0.84641016"
       cy="1028.3622"
       cx="18.857084"
       id="path3278"
       style="fill:none;fill-opacity:1;fill-rule:evenodd;stroke:none" />
    <ellipse
       ry="0.84585017"
       rx="0.84641016"
       cy="1028.3622"
       cx="29.852798"
       style="fill:none;fill-opacity:1;fill-rule:evenodd;stroke:none"
       id="path3280" />
    <g
       transform="matrix(0.42291208,0,0,0.42291208,14.430846,591.7991)"
       id="g4143">
      <path
         style="fill:#4d4d4d;fill-opacity:1;fill-rule:evenodd;stroke:none"
         id="path3293"
         d="M 24.459955,1037.5345 9,1028.6086 l 15.459956,-8.9258 z"
         transform="matrix(-1.4230309,0,0,1.6805199,55.807293,-700.23509)" />
      <rect
         style="opacity:1;fill:#4d4d4d;fill-opacity:1;stroke:none;stroke-width:15;stroke-linecap:square;stroke-linejoin:round;stroke-miterlimit:4;stroke-dasharray:30, 15;stroke-dashoffset:0;stroke-opacity:1"
         id="rect4141"
         width="17.227041"
         height="13.817602"
         x="5.1670918"
         y="1021.4534"
         ry="2.35182e-07" />
    </g>
  </g>
</svg>
