<?xml version="1.0" encoding="UTF-8" standalone="no"?>
<svg
   xmlns:dc="http://purl.org/dc/elements/1.1/"
   xmlns:cc="http://creativecommons.org/ns#"
   xmlns:rdf="http://www.w3.org/1999/02/22-rdf-syntax-ns#"
   xmlns:svg="http://www.w3.org/2000/svg"
   xmlns="http://www.w3.org/2000/svg"
   version="1.1"
   id="svg3760"
   height="16"
   width="16">
  <defs
     id="defs3762" />
  <metadata
     id="metadata3765">
    <rdf:RDF>
      <cc:Work
         rdf:about="">
        <dc:format>image/svg+xml</dc:format>
        <dc:type
           rdf:resource="http://purl.org/dc/dcmitype/StillImage" />
        <dc:title></dc:title>
      </cc:Work>
    </rdf:RDF>
  </metadata>
  <g
     transform="translate(-566.78572,-596.8979)"
     id="layer1">
    <path
       id="path3272"
       d="m 572.94314,599.57121 c -1.09034,0.31423 -2.10404,0.89549 -2.90636,1.69836 -1.24188,1.24272 -1.96409,2.98988 -1.96409,4.7472 0,1.75732 0.72221,3.5036 1.96409,4.74632 1.24189,1.24273 2.98785,1.96659 4.74544,1.9667 1.75759,1.1e-4 3.50547,-0.72397 4.74895,-1.9667 1.24347,-1.24273 1.96758,-2.98881 1.96758,-4.74632 0,-1.75753 -0.72411,-3.50447 -1.96758,-4.7472 -0.80186,-0.80139 -1.81416,-1.38282 -2.90287,-1.69748 l 0,1.88717 c 0.60974,0.2467 1.17185,0.61093 1.63719,1.076 0.91186,0.91134 1.44312,2.19267 1.44312,3.48151 0,1.28884 -0.53126,2.56929 -1.44312,3.48063 -0.91189,0.91134 -2.19349,1.44232 -3.4824,1.44225 -1.28888,-8e-5 -2.56905,-0.53092 -3.47977,-1.44225 -0.91071,-0.91133 -1.44049,-2.19193 -1.44049,-3.48063 0,-1.28871 0.52978,-2.5693 1.44049,-3.48064 0.46586,-0.46617 1.02891,-0.83081 1.63982,-1.07777 l 0,-1.88715 z"
       style="fill:#ffffff;fill-opacity:1;fill-rule:evenodd;stroke:none" />
    <rect
       transform="matrix(0,-1,-1,0,0,0)"
       y="-575.68079"
       x="-607.80682"
       height="1.7901404"
       width="10.740843"
       id="rect3282"
       style="fill:#ffffff;fill-opacity:1;fill-rule:evenodd;stroke:none" />
  </g>
</svg>
