<?xml version="1.0" encoding="UTF-8" standalone="no"?>
<svg
   xmlns:dc="http://purl.org/dc/elements/1.1/"
   xmlns:cc="http://creativecommons.org/ns#"
   xmlns:rdf="http://www.w3.org/1999/02/22-rdf-syntax-ns#"
   xmlns:svg="http://www.w3.org/2000/svg"
   xmlns="http://www.w3.org/2000/svg"
   version="1.1"
   id="svg3780"
   height="16"
   width="16">
  <defs
     id="defs3782" />
  <metadata
     id="metadata3785">
    <rdf:RDF>
      <cc:Work
         rdf:about="">
        <dc:format>image/svg+xml</dc:format>
        <dc:type
           rdf:resource="http://purl.org/dc/dcmitype/StillImage" />
        <dc:title></dc:title>
      </cc:Work>
    </rdf:RDF>
  </metadata>
  <g
     transform="translate(0,-1036.3622)"
     id="layer1">
    <g
       transform="translate(-15.97482,16.000011)"
       id="g4140">
      <rect
         style="opacity:1;fill:#4d4d4d;fill-opacity:1;stroke:none;stroke-width:15;stroke-linecap:square;stroke-linejoin:round;stroke-miterlimit:4;stroke-dasharray:30, 15;stroke-dashoffset:0;stroke-opacity:1"
         id="rect4138"
         width="3.5848088"
         height="3.9880495"
         x="22.195841"
         y="1026.3622" />
      <rect
         y="1026.3741"
         x="28.390011"
         height="3.9880495"
         width="3.5848088"
         id="rect4142"
         style="opacity:1;fill:#4d4d4d;fill-opacity:1;stroke:none;stroke-width:15;stroke-linecap:square;stroke-linejoin:round;stroke-miterlimit:4;stroke-dasharray:30, 15;stroke-dashoffset:0;stroke-opacity:1" />
      <rect
         y="1026.3741"
         x="15.97482"
         height="3.9880495"
         width="3.5848088"
         id="rect4144"
         style="opacity:1;fill:#4d4d4d;fill-opacity:1;stroke:none;stroke-width:15;stroke-linecap:square;stroke-linejoin:round;stroke-miterlimit:4;stroke-dasharray:30, 15;stroke-dashoffset:0;stroke-opacity:1" />
    </g>
  </g>
</svg>
