<?xml version="1.0" encoding="UTF-8" standalone="no"?>
<svg
   xmlns:dc="http://purl.org/dc/elements/1.1/"
   xmlns:cc="http://creativecommons.org/ns#"
   xmlns:rdf="http://www.w3.org/1999/02/22-rdf-syntax-ns#"
   xmlns:svg="http://www.w3.org/2000/svg"
   xmlns="http://www.w3.org/2000/svg"
   version="1.1"
   id="svg2"
   height="16"
   width="16">
  <defs
     id="defs4" />
  <metadata
     id="metadata7">
    <rdf:RDF>
      <cc:Work
         rdf:about="">
        <dc:format>image/svg+xml</dc:format>
        <dc:type
           rdf:resource="http://purl.org/dc/dcmitype/StillImage" />
        <dc:title></dc:title>
      </cc:Work>
    </rdf:RDF>
  </metadata>
  <g
     transform="translate(-16,-1020.3622)"
     id="layer1">
    <path
       id="path3289"
       d="m 26.665625,1020.3622 -0.74375,0.7437 5.334375,5.3344 0.74375,-0.7437 -5.334375,-5.3344 z m -1.755208,1.2229 -0.597917,0.5979 -0.910417,0.9105 -7.402083,7.402 0,5.8667 5.866667,0 0.001,0 7.401042,-7.4021 0.910417,-0.9104 0.001,0 0.596874,-0.5979 -1.508333,-1.5083 -2.85,-2.85 -1.508333,-1.5084 z m 0,3.0167 2.85,2.85 -7.401042,7.4021 -2.851042,-2.85 7.402084,-7.4021 z"
       style="fill:#4d4d4d;stroke:none;stroke-width:1px;stroke-linecap:butt;stroke-linejoin:miter;stroke-opacity:1" />
  </g>
</svg>
