<?xml version="1.0" encoding="UTF-8" standalone="no"?>
<svg
   xmlns:dc="http://purl.org/dc/elements/1.1/"
   xmlns:cc="http://creativecommons.org/ns#"
   xmlns:rdf="http://www.w3.org/1999/02/22-rdf-syntax-ns#"
   xmlns:svg="http://www.w3.org/2000/svg"
   xmlns="http://www.w3.org/2000/svg"
   id="svg2"
   version="1.1"
   width="15.625075"
   height="15.999999">
  <metadata
     id="metadata12">
    <rdf:RDF>
      <cc:Work
         rdf:about="">
        <dc:format>image/svg+xml</dc:format>
        <dc:type
           rdf:resource="http://purl.org/dc/dcmitype/StillImage" />
        <dc:title></dc:title>
      </cc:Work>
    </rdf:RDF>
  </metadata>
  <defs
     id="defs10" />
  <g
     style="fill:#4d4d4d;fill-opacity:1"
     id="g4"
     transform="matrix(1.1420169,0,0,1.1420169,-1.1422452,-1184.7166)">
    <path
       style="fill:#4d4d4d;fill-opacity:1"
       id="path6"
       d="m 12.228,1037.4 c -1.3565,0 -2.4592,1.0977 -2.4592,2.4542 0,0.075 0.0084,0.1504 0.0149,0.2236 l -4.7346,2.4145 c -0.4291,-0.3667 -0.98611,-0.5863 -1.5947,-0.5863 -1.3565,0 -2.4542,1.0977 -2.4542,2.4543 0,1.3565 1.0977,2.4542 2.4542,2.4542 0.54607,0 1.0528,-0.1755 1.4606,-0.477 l 4.8637,2.4741 c -0.0024,0.044 -0.0099,0.089 -0.0099,0.1342 0,1.3565 1.1027,2.4542 2.4592,2.4542 1.3565,0 2.4542,-1.0977 2.4542,-2.4542 0,-1.3565 -1.0977,-2.4592 -2.4542,-2.4592 -0.63653,0 -1.218,0.2437 -1.6544,0.6409 l -4.6953,-2.4 c 0.01892,-0.1228 0.03478,-0.2494 0.03478,-0.3775 0,-0.072 -0.0089,-0.1437 -0.0149,-0.2137 l 4.7395,-2.4145 c 0.42802,0.3627 0.98488,0.5813 1.5898,0.5813 1.3565,0 2.4542,-1.1027 2.4542,-2.4592 0,-1.3565 -1.0977,-2.4542 -2.4542,-2.4542 z" />
  </g>
</svg>
