<?xml version="1.0" encoding="UTF-8" standalone="no"?>
<svg
   xmlns:dc="http://purl.org/dc/elements/1.1/"
   xmlns:cc="http://creativecommons.org/ns#"
   xmlns:rdf="http://www.w3.org/1999/02/22-rdf-syntax-ns#"
   xmlns:svg="http://www.w3.org/2000/svg"
   xmlns="http://www.w3.org/2000/svg"
   version="1.1"
   id="svg3780"
   height="16"
   width="16">
  <defs
     id="defs3782" />
  <metadata
     id="metadata3785">
    <rdf:RDF>
      <cc:Work
         rdf:about="">
        <dc:format>image/svg+xml</dc:format>
        <dc:type
           rdf:resource="http://purl.org/dc/dcmitype/StillImage" />
        <dc:title></dc:title>
      </cc:Work>
    </rdf:RDF>
  </metadata>
  <g
     transform="translate(-16.018684,-1020.2385)"
     id="layer1">
    <path
       style="fill:#4d4d4d;fill-opacity:1;fill-rule:evenodd;stroke:none"
       d="m 20.706684,1021.4814 0,1.208 11.312001,0 0,-1.208 z"
       id="path5277" />
    <path
       id="rect3278"
       d="m 20.706684,1027.6786 0,1.208 11.312001,0 0,-1.208 z"
       style="fill:#4d4d4d;fill-opacity:1;fill-rule:evenodd;stroke:none" />
    <rect
       y="1026.4971"
       x="16.029383"
       height="3.5710566"
       width="3.5710566"
       id="rect4138"
       style="opacity:1;fill:#4d4d4d;fill-opacity:1;stroke:none;stroke-width:15;stroke-linecap:square;stroke-linejoin:round;stroke-miterlimit:4;stroke-dasharray:30, 15;stroke-dashoffset:0;stroke-opacity:1" />
    <rect
       style="opacity:1;fill:#4d4d4d;fill-opacity:1;stroke:none;stroke-width:15;stroke-linecap:square;stroke-linejoin:round;stroke-miterlimit:4;stroke-dasharray:30, 15;stroke-dashoffset:0;stroke-opacity:1"
       id="rect4142"
       width="3.5710566"
       height="3.5710566"
       x="16.018684"
       y="1032.6675" />
    <rect
       style="opacity:1;fill:#4d4d4d;fill-opacity:1;stroke:none;stroke-width:15;stroke-linecap:square;stroke-linejoin:round;stroke-miterlimit:4;stroke-dasharray:30, 15;stroke-dashoffset:0;stroke-opacity:1"
       id="rect4144"
       width="3.5710566"
       height="3.5710566"
       x="16.018684"
       y="1020.2999" />
    <path
       id="path5279"
       d="m 20.706684,1033.8489 0,1.2081 11.312001,0 0,-1.2081 z"
       style="fill:#4d4d4d;fill-opacity:1;fill-rule:evenodd;stroke:none" />
  </g>
</svg>
