<?xml version="1.0" encoding="UTF-8" standalone="no"?>
<svg
   xmlns:dc="http://purl.org/dc/elements/1.1/"
   xmlns:cc="http://creativecommons.org/ns#"
   xmlns:rdf="http://www.w3.org/1999/02/22-rdf-syntax-ns#"
   xmlns:svg="http://www.w3.org/2000/svg"
   xmlns="http://www.w3.org/2000/svg"
   version="1.1"
   id="svg4169"
   height="15.998543"
   width="16">
  <defs
     id="defs4171" />
  <metadata
     id="metadata4174">
    <rdf:RDF>
      <cc:Work
         rdf:about="">
        <dc:format>image/svg+xml</dc:format>
        <dc:type
           rdf:resource="http://purl.org/dc/dcmitype/StillImage" />
        <dc:title></dc:title>
      </cc:Work>
    </rdf:RDF>
  </metadata>
  <g
     transform="translate(-15.998615,-1020.3629)"
     id="layer1">
    <rect
       y="1022.3627"
       x="17.999723"
       height="11.998891"
       width="11.998891"
       id="rect3260"
       style="fill:none;stroke:none" />
    <path
       transform="matrix(-0.56915975,0,0,0.67214584,33.521206,336.98718)"
       d="M 24.459955,1037.5345 9,1028.6086 l 15.459956,-8.9258 z"
       id="path3293"
       style="fill:#4d4d4d;fill-opacity:1;fill-rule:evenodd;stroke:none" />
    <ellipse
       ry="0.79995066"
       rx="0.80048037"
       cy="1028.3622"
       cx="18.799095"
       id="path3278"
       style="fill:none;fill-opacity:1;fill-rule:evenodd;stroke:none" />
    <ellipse
       ry="0.79995066"
       rx="0.80048037"
       cy="1028.3622"
       cx="29.198133"
       style="fill:none;fill-opacity:1;fill-rule:evenodd;stroke:none"
       id="path3280" />
  </g>
</svg>
