<?xml version="1.0" encoding="UTF-8" standalone="no"?>
<!-- Created with Inkscape (http://www.inkscape.org/) -->

<svg
   xmlns:dc="http://purl.org/dc/elements/1.1/"
   xmlns:cc="http://creativecommons.org/ns#"
   xmlns:rdf="http://www.w3.org/1999/02/22-rdf-syntax-ns#"
   xmlns:svg="http://www.w3.org/2000/svg"
   xmlns="http://www.w3.org/2000/svg"
   xmlns:sodipodi="http://sodipodi.sourceforge.net/DTD/sodipodi-0.dtd"
   xmlns:inkscape="http://www.inkscape.org/namespaces/inkscape"
   width="16"
   height="16"
   id="svg4169"
   version="1.1"
   inkscape:version="0.91 r"
   sodipodi:docname="view-pause.svg">
  <defs
     id="defs4171" />
  <sodipodi:namedview
     id="base"
     pagecolor="#ffffff"
     bordercolor="#666666"
     borderopacity="1.0"
     inkscape:pageopacity="0.0"
     inkscape:pageshadow="2"
     inkscape:zoom="11.313708"
     inkscape:cx="-12.438681"
     inkscape:cy="17.745602"
     inkscape:document-units="px"
     inkscape:current-layer="layer1"
     showgrid="false"
     inkscape:window-width="1549"
     inkscape:window-height="876"
     inkscape:window-x="51"
     inkscape:window-maximized="1"
     inkscape:window-y="24">
    <sodipodi:guide
       position="9,39.000017"
       orientation="30,0"
       id="guide3266" />
    <sodipodi:guide
       position="9,9.0000174"
       orientation="0,30"
       id="guide3268" />
    <sodipodi:guide
       position="39,9.0000174"
       orientation="-30,0"
       id="guide3270" />
    <sodipodi:guide
       position="39,39.000017"
       orientation="0,-30"
       id="guide3272" />
  </sodipodi:namedview>
  <metadata
     id="metadata4174">
    <rdf:RDF>
      <cc:Work
         rdf:about="">
        <dc:format>image/svg+xml</dc:format>
        <dc:type
           rdf:resource="http://purl.org/dc/dcmitype/StillImage" />
        <dc:title></dc:title>
      </cc:Work>
    </rdf:RDF>
  </metadata>
  <g
     inkscape:label="Capa 1"
     inkscape:groupmode="layer"
     id="layer1"
     transform="translate(0,-1036.3622)">
    <rect
       style="fill:none;stroke:none"
       id="rect3262"
       width="12"
       height="12"
       x="2"
       y="1038.3622" />
    <rect
       style="fill:#ffffff;fill-opacity:1;fill-rule:evenodd;stroke:none"
       id="rect3278"
       width="2.8"
       height="12"
       x="3.6000004"
       y="1038.3622" />
    <rect
       y="1038.3622"
       x="9.6000004"
       height="12"
       width="2.8"
       id="rect3280"
       style="fill:#ffffff;fill-opacity:1;fill-rule:evenodd;stroke:none" />
  </g>
</svg>
