<?xml version="1.0" encoding="UTF-8" standalone="no"?>
<svg
   xmlns:dc="http://purl.org/dc/elements/1.1/"
   xmlns:cc="http://creativecommons.org/ns#"
   xmlns:rdf="http://www.w3.org/1999/02/22-rdf-syntax-ns#"
   xmlns:svg="http://www.w3.org/2000/svg"
   xmlns="http://www.w3.org/2000/svg"
   version="1.1"
   id="svg2"
   height="32"
   width="32">
  <metadata
     id="metadata17">
    <rdf:RDF>
      <cc:Work
         rdf:about="">
        <dc:format>image/svg+xml</dc:format>
        <dc:type
           rdf:resource="http://purl.org/dc/dcmitype/StillImage" />
        <dc:title></dc:title>
      </cc:Work>
    </rdf:RDF>
  </metadata>
  <defs
     id="defs4" />
  <path
     id="rect4090-4"
     d="M 4.0999999,2.0000967 4.0999999,30 27.9,30 27.9,9.70007 20.2,2.0000967 Z"
     style="fill:#ffffff;fill-opacity:1;stroke:none" />
  <path
     id="path4151-6"
     d="m 20.199957,1.9999999 0,7.7000855 7.700042,0 z"
     style="fill:#808080;fill-opacity:1;stroke:none;stroke-width:0.28222224px;stroke-linecap:butt;stroke-linejoin:miter;stroke-opacity:1" />
  <path
     style="fill:#b3b3b3;fill-opacity:0.30198023;stroke:none"
     d="m 27.899999,17.400172 0,-7.7000866 -7.700042,0 z"
     id="path4252-5" />
</svg>
